<svg width="40" height="40" viewBox="0 0 40 40" fill="none" xmlns="http://www.w3.org/2000/svg">
<path d="M38.75 33.7509H21.25C20.56 33.7509 20 33.1909 20 32.5009C20 31.8109 20 8.19085 20 7.50085C20 6.81085 20.56 6.25085 21.25 6.25085H38.75C39.44 6.25085 40 6.81085 40 7.50085V32.5009C40 33.1909 39.44 33.7509 38.75 33.7509Z" fill="#ECEFF1"/>
<path d="M26.25 13.7509H21.25C20.56 13.7509 20 13.1909 20 12.5009C20 11.8109 20.56 11.2509 21.25 11.2509H26.25C26.94 11.2509 27.5 11.8109 27.5 12.5009C27.5 13.1909 26.94 13.7509 26.25 13.7509Z" fill="#388E3C"/>
<path d="M26.25 18.7509H21.25C20.56 18.7509 20 18.1909 20 17.5009C20 16.8109 20.56 16.2509 21.25 16.2509H26.25C26.94 16.2509 27.5 16.8109 27.5 17.5009C27.5 18.1909 26.94 18.7509 26.25 18.7509Z" fill="#388E3C"/>
<path d="M26.25 23.7509H21.25C20.56 23.7509 20 23.1909 20 22.5009C20 21.8109 20.56 21.2509 21.25 21.2509H26.25C26.94 21.2509 27.5 21.8109 27.5 22.5009C27.5 23.1909 26.94 23.7509 26.25 23.7509Z" fill="#388E3C"/>
<path d="M26.25 28.7509H21.25C20.56 28.7509 20 28.1909 20 27.5009C20 26.8109 20.56 26.2509 21.25 26.2509H26.25C26.94 26.2509 27.5 26.8109 27.5 27.5009C27.5 28.1909 26.94 28.7509 26.25 28.7509Z" fill="#388E3C"/>
<path d="M33.75 13.7509H31.25C30.56 13.7509 30 13.1909 30 12.5009C30 11.8109 30.56 11.2509 31.25 11.2509H33.75C34.44 11.2509 35 11.8109 35 12.5009C35 13.1909 34.44 13.7509 33.75 13.7509Z" fill="#388E3C"/>
<path d="M33.75 18.7509H31.25C30.56 18.7509 30 18.1909 30 17.5009C30 16.8109 30.56 16.2509 31.25 16.2509H33.75C34.44 16.2509 35 16.8109 35 17.5009C35 18.1909 34.44 18.7509 33.75 18.7509Z" fill="#388E3C"/>
<path d="M33.75 23.7509H31.25C30.56 23.7509 30 23.1909 30 22.5009C30 21.8109 30.56 21.2509 31.25 21.2509H33.75C34.44 21.2509 35 21.8109 35 22.5009C35 23.1909 34.44 23.7509 33.75 23.7509Z" fill="#388E3C"/>
<path d="M33.75 28.7509H31.25C30.56 28.7509 30 28.1909 30 27.5009C30 26.8109 30.56 26.2509 31.25 26.2509H33.75C34.44 26.2509 35 26.8109 35 27.5009C35 28.1909 34.44 28.7509 33.75 28.7509Z" fill="#388E3C"/>
<path d="M22.0475 1.53833C21.7625 1.30083 21.38 1.19833 21.02 1.27333L1.02 5.02333C0.4275 5.13333 0 5.64833 0 6.25083V33.7508C0 34.3508 0.4275 34.8683 1.02 34.9783L21.02 38.7283C21.095 38.7433 21.1725 38.7508 21.25 38.7508C21.54 38.7508 21.8225 38.6508 22.0475 38.4633C22.335 38.2258 22.5 37.8708 22.5 37.5008V2.50083C22.5 2.12833 22.335 1.77583 22.0475 1.53833Z" fill="#2E7D32"/>
<path d="M17.1901 24.1784L13.2376 19.6609L17.2351 14.5209C17.6601 13.9759 17.5601 13.1909 17.0176 12.7659C16.4751 12.3409 15.6901 12.4409 15.2626 12.9834L11.5601 17.7434L8.44007 14.1784C7.98256 13.6534 7.19257 13.6059 6.67756 14.0609C6.15756 14.5159 6.10506 15.3059 6.56007 15.8234L9.99757 19.7534L6.51256 24.2334C6.08756 24.7784 6.18756 25.5634 6.73006 25.9884C6.96006 26.1659 7.23256 26.2509 7.50007 26.2509C7.87257 26.2509 8.24007 26.0859 8.48757 25.7684L11.6751 21.6684L15.3101 25.8209C15.5576 26.1059 15.9026 26.2509 16.2501 26.2509C16.5426 26.2509 16.8351 26.1484 17.0726 25.9409C17.5926 25.4859 17.6451 24.6959 17.1901 24.1784Z" fill="#FAFAFA"/>
</svg>
