<svg width="33" height="34" viewBox="0 0 33 34" fill="none" xmlns="http://www.w3.org/2000/svg">
<g clip-path="url(#clip0)">
<path d="M32.297 31.5648L22.9122 21.8028C24.7624 19.4964 25.8751 16.549 25.8751 13.3298C25.8751 5.98558 20.0767 0.0140686 12.9443 0.0140686C5.81185 0.0140686 0 5.99255 0 13.3367C0 20.6809 5.79844 26.6525 12.9309 26.6525C15.9608 26.6525 18.7494 25.5724 20.9615 23.7677L30.3798 33.5577C30.9295 34.129 31.7473 34.129 32.297 33.5577C32.8467 32.9863 32.8467 32.1362 32.297 31.5648ZM2.7484 13.3367C2.7484 7.5673 7.32012 2.87789 12.9309 2.87789C18.5416 2.87789 23.1133 7.5673 23.1133 13.3367C23.1133 19.1062 18.5416 23.7956 12.9309 23.7956C7.32012 23.7956 2.7484 19.0992 2.7484 13.3367Z" fill="black"/>
</g>
<defs>
<clipPath id="clip0">
<rect width="32.7093" height="34" fill="white"/>
</clipPath>
</defs>
</svg>
